R markdown demo
…
MHL
Marshall Islands

Which country codes are not linked to a region?

nr_country_table <- 
  country %>% 
  filter(is.na(Region)) %>% 
  select(Country_Code) %>% 
  unique()
nr_country_table

## # A tibble: 46 x 1
##    Country_Code
##    <fct>       
##  1 ARB         
##  2 CEB         
##  3 CSS         
##  4 EAP         
##  5 EAR         
##  6 EAS         
##  7 ECA         
##  8 ECS         
##  9 EMU         
## 10 EUU         
## # ... with 36 more rows
…
# Rename the life expectancy column to something meaningful and order by region and life expectancy.
av_le <- 
  indicators %>% 
  select(Country_Code, Country_Name, Indicator_Code, Yr2016) %>% 
  filter(Indicator_Code == "SP.DYN.LE00.FE.IN") %>% 
  left_join(country) %>%
  select(Country_Name, Region, Income_Group, Yr2016) %>% 
  group_by(Income_Group, Region) %>% 
  summarise(Av_Fem_Life_Exp = mean(Yr2016, na.rm = TRUE)) %>% 
  drop_na() %>% 
  arrange(Region, desc(Av_Fem_Life_Exp))
av_le

## # A tibble: 24 x 3
## # Groups:   Income_Group [4]
##    Income_Group        Region                    Av_Fem_Life_Exp
##    <fct>               <fct>                               <dbl>
##  1 High income         East Asia & Pacific                  83.6
##  2 Upper middle income East Asia & Pacific                  77.1
##  3 Low income          East Asia & Pacific                  75.1
##  4 Lower middle income East Asia & Pacific                  71.7
##  5 High income         Europe & Central Asia                83.3
##  6 Upper middle income Europe & Central Asia                77.8
##  7 Lower middle income Europe & Central Asia                75.5
##  8 Low income          Europe & Central Asia                74.2
##  9 High income         Latin America & Caribbean            80.2
## 10 Upper middle income Latin America & Caribbean            77.3
## # ... with 14 more rows
…
