R markdown demo
…
List the country names and codes

indicators %>% 
  select(Country_Code, Country_Name) %>% 
  unique() %>% 
  arrange(Country_Code) %>% 
  head(50)

## # A tibble: 50 x 2
##    Country_Code Country_Name        
##    <fct>        <chr>               
##  1 ABW          Aruba               
##  2 AFG          Afghanistan         
##  3 AGO          Angola              
##  4 ALB          Albania             
##  5 AND          Andorra             
##  6 ARB          Arab World          
##  7 ARE          United Arab Emirates
##  8 ARG          Argentina           
##  9 ARM          Armenia             
## 10 ASM          American Samoa      
## # ... with 40 more rows

Which country codes are not linked to a region?

country %>% 
  filter(is.na(Region)) %>% 
  select(Country_Code) %>% 
  unique()

## # A tibble: 46 x 1
##    Country_Code
##    <fct>       
##  1 ARB         
##  2 CEB         
##  3 CSS         
##  4 EAP         
##  5 EAR         
##  6 EAS         
##  7 ECA         
##  8 ECS         
##  9 EMU         
## 10 EUU         
## # ... with 36 more rows
…
## Joining, by = "Country_Code"

## Warning: Column `Country_Code` joining factors with different levels,
## coercing to character vector

## Warning: Factor `Income_Group` contains implicit NA, consider using
## `forcats::fct_explicit_na`

## Warning: Factor `Region` contains implicit NA, consider using
## `forcats::fct_explicit_na`

## # A tibble: 24 x 3
## # Groups:   Income_Group [4]
##    Income_Group        Region                    Av_Fem_Life_Exp
##    <fct>               <fct>                               <dbl>
##  1 High income         East Asia & Pacific                  83.6
##  2 Upper middle income East Asia & Pacific                  77.1
##  3 Low income          East Asia & Pacific                  75.1
##  4 Lower middle income East Asia & Pacific                  71.7
##  5 High income         Europe & Central Asia                83.3
##  6 Upper middle income Europe & Central Asia                77.8
##  7 Lower middle income Europe & Central Asia                75.5
##  8 Low income          Europe & Central Asia                74.2
##  9 High income         Latin America & Caribbean            80.2
## 10 Upper middle income Latin America & Caribbean            77.3
## # ... with 14 more rows
